(module logo-sm (layer F.Cu) (tedit 612C0150)
  (fp_text reference G*** (at 0 0) (layer F.SilkS) hide
    (effects (font (size 1.524 1.524) (thickness 0.3)))
  )
  (fp_text value LOGO (at 0.75 0) (layer F.SilkS) hide
    (effects (font (size 1.524 1.524) (thickness 0.3)))
  )
  (fp_poly (pts (xy -6.604 0.640785) (xy -7.051163 1.082392) (xy -7.275023 1.295931) (xy -7.45393 1.452707)
    (xy -7.553473 1.522806) (xy -7.559163 1.524) (xy -7.575483 1.44304) (xy -7.59015 1.214979)
    (xy -7.602548 0.862048) (xy -7.612063 0.406475) (xy -7.618081 -0.129509) (xy -7.62 -0.677333)
    (xy -7.62 -2.878666) (xy -6.604 -2.878666) (xy -6.604 0.640785)) (layer F.SilkS) (width 0.01))
  (fp_poly (pts (xy 4.826 -0.042333) (xy 4.82483 0.631494) (xy 4.82151 1.248108) (xy 4.816319 1.787925)
    (xy 4.80954 2.231359) (xy 4.801454 2.558827) (xy 4.792342 2.750745) (xy 4.785254 2.794)
    (xy 4.715222 2.739372) (xy 4.533604 2.583819) (xy 4.254551 2.339836) (xy 3.892212 2.01992)
    (xy 3.460738 1.636566) (xy 2.974278 1.202272) (xy 2.446982 0.729532) (xy 2.414588 0.700426)
    (xy 0.084667 -1.393147) (xy 0.084667 -2.093574) (xy 0.089706 -2.413999) (xy 0.103128 -2.657395)
    (xy 0.122391 -2.784357) (xy 0.129865 -2.794) (xy 0.201801 -2.739475) (xy 0.383154 -2.585301)
    (xy 0.657902 -2.345581) (xy 1.010026 -2.034417) (xy 1.423505 -1.66591) (xy 1.882317 -1.254163)
    (xy 2.013698 -1.135776) (xy 3.852333 0.522447) (xy 3.875253 -1.17811) (xy 3.898173 -2.878666)
    (xy 4.826 -2.878666) (xy 4.826 -0.042333)) (layer F.SilkS) (width 0.01))
  (fp_poly (pts (xy 9.865535 0) (xy 11.303 1.439334) (xy 12.740465 2.878667) (xy 11.385852 2.878667)
    (xy 9.926233 1.417259) (xy 8.466615 -0.04415) (xy 11.304815 -2.878666) (xy 12.740465 -2.878666)
    (xy 9.865535 0)) (layer F.SilkS) (width 0.01))
  (fp_poly (pts (xy 8.39924 -2.829095) (xy 8.688791 -2.799814) (xy 8.929957 -2.737142) (xy 9.183045 -2.629729)
    (xy 9.236397 -2.603846) (xy 9.51724 -2.450661) (xy 9.753444 -2.295184) (xy 9.865306 -2.199521)
    (xy 9.948395 -2.094654) (xy 9.95675 -2.004728) (xy 9.87522 -1.884199) (xy 9.698258 -1.697353)
    (xy 9.375699 -1.367022) (xy 9.066487 -1.571648) (xy 8.609993 -1.782111) (xy 8.08648 -1.874008)
    (xy 7.627245 -1.847845) (xy 7.130526 -1.683447) (xy 6.723726 -1.39855) (xy 6.415389 -1.021155)
    (xy 6.214058 -0.579261) (xy 6.128273 -0.100866) (xy 6.166578 0.386029) (xy 6.337515 0.853426)
    (xy 6.649627 1.273325) (xy 6.669124 1.292602) (xy 7.00956 1.564175) (xy 7.379683 1.762106)
    (xy 7.723008 1.857968) (xy 7.801878 1.862667) (xy 7.946913 1.904486) (xy 8.17329 2.012713)
    (xy 8.438517 2.161499) (xy 8.700105 2.324997) (xy 8.915564 2.477361) (xy 9.042403 2.592743)
    (xy 9.059333 2.627596) (xy 8.983742 2.68243) (xy 8.790859 2.745923) (xy 8.531519 2.806557)
    (xy 8.256558 2.852817) (xy 8.016811 2.873186) (xy 7.975666 2.873095) (xy 7.76422 2.848109)
    (xy 7.470872 2.79015) (xy 7.281333 2.743746) (xy 6.647475 2.493222) (xy 6.105478 2.114054)
    (xy 5.671558 1.627084) (xy 5.361931 1.053152) (xy 5.19281 0.4131) (xy 5.165494 0.024343)
    (xy 5.238668 -0.687903) (xy 5.459473 -1.317367) (xy 5.826771 -1.862147) (xy 6.339425 -2.320344)
    (xy 6.703828 -2.546169) (xy 6.977625 -2.687335) (xy 7.200325 -2.773465) (xy 7.432035 -2.818004)
    (xy 7.732866 -2.834399) (xy 8.001 -2.836333) (xy 8.39924 -2.829095)) (layer F.SilkS) (width 0.01))
  (fp_poly (pts (xy 1.121833 1.879793) (xy 1.651 1.905) (xy 1.881855 2.328334) (xy 2.008185 2.569763)
    (xy 2.092869 2.750276) (xy 2.114689 2.815167) (xy 2.038661 2.84796) (xy 1.838303 2.870895)
    (xy 1.583971 2.878667) (xy 1.051275 2.878667) (xy 0.821971 2.411124) (xy 0.701407 2.158608)
    (xy 0.618351 1.971855) (xy 0.592667 1.899084) (xy 0.669616 1.879713) (xy 0.870335 1.873195)
    (xy 1.121833 1.879793)) (layer F.SilkS) (width 0.01))
  (fp_poly (pts (xy -0.672031 -2.72155) (xy -0.55982 -2.517865) (xy -0.393872 -2.203444) (xy -0.184901 -1.798786)
    (xy 0.056375 -1.32439) (xy 0.254 -0.931333) (xy 1.18607 0.931334) (xy 0.636192 0.931333)
    (xy 0.086314 0.931333) (xy -0.316676 0.130567) (xy -0.719667 -0.6702) (xy -1.635762 1.104234)
    (xy -2.551857 2.878667) (xy -3.053929 2.878667) (xy -3.320125 2.872107) (xy -3.502162 2.855074)
    (xy -3.556 2.835835) (xy -3.5195 2.747871) (xy -3.416827 2.530799) (xy -3.258221 2.204948)
    (xy -3.053922 1.790643) (xy -2.81417 1.30821) (xy -2.549205 0.777975) (xy -2.269267 0.220266)
    (xy -1.984596 -0.344592) (xy -1.705432 -0.896272) (xy -1.442015 -1.414448) (xy -1.204586 -1.878794)
    (xy -1.003384 -2.268984) (xy -0.848649 -2.564691) (xy -0.750621 -2.745589) (xy -0.719786 -2.794)
    (xy -0.672031 -2.72155)) (layer F.SilkS) (width 0.01))
  (fp_poly (pts (xy -3.767667 1.905) (xy -3.742275 2.391834) (xy -3.716883 2.878667) (xy -7.572366 2.878667)
    (xy -7.067733 2.368712) (xy -6.563099 1.858758) (xy -3.767667 1.905)) (layer F.SilkS) (width 0.01))
  (fp_poly (pts (xy -10.437969 -2.872625) (xy -9.894764 -2.850957) (xy -9.470627 -2.808342) (xy -9.140581 -2.739464)
    (xy -8.879652 -2.639003) (xy -8.662862 -2.501641) (xy -8.465236 -2.322061) (xy -8.453352 -2.309734)
    (xy -8.142117 -1.93433) (xy -7.959911 -1.570227) (xy -7.881821 -1.158187) (xy -7.874 -0.932165)
    (xy -7.933889 -0.397411) (xy -8.125061 0.052081) (xy -8.464774 0.453518) (xy -8.553368 0.532433)
    (xy -8.806548 0.718809) (xy -9.085172 0.852759) (xy -9.421637 0.941705) (xy -9.848339 0.993075)
    (xy -10.397672 1.014292) (xy -10.663159 1.016) (xy -11.684 1.016) (xy -11.684 2.878667)
    (xy -12.615333 2.878667) (xy -12.615333 0) (xy -11.087129 0) (xy -10.463033 -0.004073)
    (xy -9.984584 -0.019979) (xy -9.628213 -0.053248) (xy -9.370353 -0.109409) (xy -9.187434 -0.193992)
    (xy -9.055888 -0.312527) (xy -8.952146 -0.470544) (xy -8.933767 -0.505228) (xy -8.818352 -0.847542)
    (xy -8.854444 -1.171345) (xy -8.975022 -1.420277) (xy -9.09806 -1.589491) (xy -9.24743 -1.709947)
    (xy -9.452448 -1.789565) (xy -9.742428 -1.836264) (xy -10.146687 -1.857962) (xy -10.612662 -1.862667)
    (xy -11.646968 -1.862667) (xy -12.149667 -2.370667) (xy -12.652365 -2.878666) (xy -11.125217 -2.878666)
    (xy -10.437969 -2.872625)) (layer F.SilkS) (width 0.01))
)
