%TF.GenerationSoftware,KiCad,Pcbnew,(5.1.10-1-10_14)*%
%TF.CreationDate,2021-08-31T23:49:44+02:00*%
%TF.ProjectId,serial_board,73657269-616c-45f6-926f-6172642e6b69,rev?*%
%TF.SameCoordinates,Original*%
%TF.FileFunction,Legend,Top*%
%TF.FilePolarity,Positive*%
%FSLAX46Y46*%
G04 Gerber Fmt 4.6, Leading zero omitted, Abs format (unit mm)*
G04 Created by KiCad (PCBNEW (5.1.10-1-10_14)) date 2021-08-31 23:49:44*
%MOMM*%
%LPD*%
G01*
G04 APERTURE LIST*
%ADD10C,0.200000*%
%ADD11C,0.300000*%
%ADD12C,0.010000*%
%ADD13C,0.120000*%
%ADD14C,0.150000*%
G04 APERTURE END LIST*
D10*
X66818452Y17184619D02*
X66818452Y16470333D01*
X66770833Y16327476D01*
X66675595Y16232238D01*
X66532738Y16184619D01*
X66437500Y16184619D01*
X67770833Y16184619D02*
X67294642Y16184619D01*
X67294642Y17184619D01*
X68675595Y16279857D02*
X68627976Y16232238D01*
X68485119Y16184619D01*
X68389880Y16184619D01*
X68247023Y16232238D01*
X68151785Y16327476D01*
X68104166Y16422714D01*
X68056547Y16613190D01*
X68056547Y16756047D01*
X68104166Y16946523D01*
X68151785Y17041761D01*
X68247023Y17137000D01*
X68389880Y17184619D01*
X68485119Y17184619D01*
X68627976Y17137000D01*
X68675595Y17089380D01*
X69389880Y17184619D02*
X69389880Y16470333D01*
X69342261Y16327476D01*
X69247023Y16232238D01*
X69104166Y16184619D01*
X69008928Y16184619D01*
X70342261Y16184619D02*
X69866071Y16184619D01*
X69866071Y17184619D01*
X71247023Y16279857D02*
X71199404Y16232238D01*
X71056547Y16184619D01*
X70961309Y16184619D01*
X70818452Y16232238D01*
X70723214Y16327476D01*
X70675595Y16422714D01*
X70627976Y16613190D01*
X70627976Y16756047D01*
X70675595Y16946523D01*
X70723214Y17041761D01*
X70818452Y17137000D01*
X70961309Y17184619D01*
X71056547Y17184619D01*
X71199404Y17137000D01*
X71247023Y17089380D01*
X71961309Y17184619D02*
X71961309Y16470333D01*
X71913690Y16327476D01*
X71818452Y16232238D01*
X71675595Y16184619D01*
X71580357Y16184619D01*
X72913690Y16184619D02*
X72437500Y16184619D01*
X72437500Y17184619D01*
X73818452Y16279857D02*
X73770833Y16232238D01*
X73627976Y16184619D01*
X73532738Y16184619D01*
X73389880Y16232238D01*
X73294642Y16327476D01*
X73247023Y16422714D01*
X73199404Y16613190D01*
X73199404Y16756047D01*
X73247023Y16946523D01*
X73294642Y17041761D01*
X73389880Y17137000D01*
X73532738Y17184619D01*
X73627976Y17184619D01*
X73770833Y17137000D01*
X73818452Y17089380D01*
X74532738Y17184619D02*
X74532738Y16470333D01*
X74485119Y16327476D01*
X74389880Y16232238D01*
X74247023Y16184619D01*
X74151785Y16184619D01*
X75485119Y16184619D02*
X75008928Y16184619D01*
X75008928Y17184619D01*
X76389880Y16279857D02*
X76342261Y16232238D01*
X76199404Y16184619D01*
X76104166Y16184619D01*
X75961309Y16232238D01*
X75866071Y16327476D01*
X75818452Y16422714D01*
X75770833Y16613190D01*
X75770833Y16756047D01*
X75818452Y16946523D01*
X75866071Y17041761D01*
X75961309Y17137000D01*
X76104166Y17184619D01*
X76199404Y17184619D01*
X76342261Y17137000D01*
X76389880Y17089380D01*
D11*
X20218571Y44673714D02*
X21247142Y44673714D01*
X20732857Y42873714D02*
X20732857Y44673714D01*
X21675714Y44673714D02*
X22875714Y42873714D01*
X22875714Y44673714D02*
X21675714Y42873714D01*
X13416000Y42873714D02*
X12816000Y43730857D01*
X12387428Y42873714D02*
X12387428Y44673714D01*
X13073142Y44673714D01*
X13244571Y44588000D01*
X13330285Y44502285D01*
X13416000Y44330857D01*
X13416000Y44073714D01*
X13330285Y43902285D01*
X13244571Y43816571D01*
X13073142Y43730857D01*
X12387428Y43730857D01*
X14016000Y44673714D02*
X15216000Y42873714D01*
X15216000Y44673714D02*
X14016000Y42873714D01*
X41473714Y54429000D02*
X42973714Y54429000D01*
X41830857Y52280428D02*
X41830857Y53780428D01*
X42188000Y53780428D01*
X42402285Y53709000D01*
X42545142Y53566142D01*
X42616571Y53423285D01*
X42688000Y53137571D01*
X42688000Y52923285D01*
X42616571Y52637571D01*
X42545142Y52494714D01*
X42402285Y52351857D01*
X42188000Y52280428D01*
X41830857Y52280428D01*
X42973714Y54429000D02*
X44402285Y54429000D01*
X43259428Y52351857D02*
X43473714Y52280428D01*
X43830857Y52280428D01*
X43973714Y52351857D01*
X44045142Y52423285D01*
X44116571Y52566142D01*
X44116571Y52709000D01*
X44045142Y52851857D01*
X43973714Y52923285D01*
X43830857Y52994714D01*
X43545142Y53066142D01*
X43402285Y53137571D01*
X43330857Y53209000D01*
X43259428Y53351857D01*
X43259428Y53494714D01*
X43330857Y53637571D01*
X43402285Y53709000D01*
X43545142Y53780428D01*
X43902285Y53780428D01*
X44116571Y53709000D01*
X44402285Y54429000D02*
X45902285Y54429000D01*
X45616571Y52280428D02*
X45116571Y52994714D01*
X44759428Y52280428D02*
X44759428Y53780428D01*
X45330857Y53780428D01*
X45473714Y53709000D01*
X45545142Y53637571D01*
X45616571Y53494714D01*
X45616571Y53280428D01*
X45545142Y53137571D01*
X45473714Y53066142D01*
X45330857Y52994714D01*
X44759428Y52994714D01*
X41910142Y51240428D02*
X42767285Y51240428D01*
X42338714Y49740428D02*
X42338714Y51240428D01*
X43124428Y51240428D02*
X44124428Y49740428D01*
X44124428Y51240428D02*
X43124428Y49740428D01*
X42803000Y47200428D02*
X42303000Y47914714D01*
X41945857Y47200428D02*
X41945857Y48700428D01*
X42517285Y48700428D01*
X42660142Y48629000D01*
X42731571Y48557571D01*
X42803000Y48414714D01*
X42803000Y48200428D01*
X42731571Y48057571D01*
X42660142Y47986142D01*
X42517285Y47914714D01*
X41945857Y47914714D01*
X43303000Y48700428D02*
X44303000Y47200428D01*
X44303000Y48700428D02*
X43303000Y47200428D01*
X41759428Y45231857D02*
X42902285Y45231857D01*
X42330857Y44660428D02*
X42330857Y45803285D01*
X44330857Y46160428D02*
X43616571Y46160428D01*
X43545142Y45446142D01*
X43616571Y45517571D01*
X43759428Y45589000D01*
X44116571Y45589000D01*
X44259428Y45517571D01*
X44330857Y45446142D01*
X44402285Y45303285D01*
X44402285Y44946142D01*
X44330857Y44803285D01*
X44259428Y44731857D01*
X44116571Y44660428D01*
X43759428Y44660428D01*
X43616571Y44731857D01*
X43545142Y44803285D01*
X44830857Y46160428D02*
X45330857Y44660428D01*
X45830857Y46160428D01*
X41652285Y44269000D02*
X43152285Y44269000D01*
X42866571Y42120428D02*
X42366571Y42834714D01*
X42009428Y42120428D02*
X42009428Y43620428D01*
X42580857Y43620428D01*
X42723714Y43549000D01*
X42795142Y43477571D01*
X42866571Y43334714D01*
X42866571Y43120428D01*
X42795142Y42977571D01*
X42723714Y42906142D01*
X42580857Y42834714D01*
X42009428Y42834714D01*
X43152285Y44269000D02*
X44295142Y44269000D01*
X43295142Y43620428D02*
X44152285Y43620428D01*
X43723714Y42120428D02*
X43723714Y43620428D01*
X44295142Y44269000D02*
X45723714Y44269000D01*
X44580857Y42191857D02*
X44795142Y42120428D01*
X45152285Y42120428D01*
X45295142Y42191857D01*
X45366571Y42263285D01*
X45438000Y42406142D01*
X45438000Y42549000D01*
X45366571Y42691857D01*
X45295142Y42763285D01*
X45152285Y42834714D01*
X44866571Y42906142D01*
X44723714Y42977571D01*
X44652285Y43049000D01*
X44580857Y43191857D01*
X44580857Y43334714D01*
X44652285Y43477571D01*
X44723714Y43549000D01*
X44866571Y43620428D01*
X45223714Y43620428D01*
X45438000Y43549000D01*
X42545142Y41009000D02*
X42402285Y41080428D01*
X42188000Y41080428D01*
X41973714Y41009000D01*
X41830857Y40866142D01*
X41759428Y40723285D01*
X41688000Y40437571D01*
X41688000Y40223285D01*
X41759428Y39937571D01*
X41830857Y39794714D01*
X41973714Y39651857D01*
X42188000Y39580428D01*
X42330857Y39580428D01*
X42545142Y39651857D01*
X42616571Y39723285D01*
X42616571Y40223285D01*
X42330857Y40223285D01*
X43259428Y39580428D02*
X43259428Y41080428D01*
X44116571Y39580428D01*
X44116571Y41080428D01*
X44830857Y39580428D02*
X44830857Y41080428D01*
X45188000Y41080428D01*
X45402285Y41009000D01*
X45545142Y40866142D01*
X45616571Y40723285D01*
X45688000Y40437571D01*
X45688000Y40223285D01*
X45616571Y39937571D01*
X45545142Y39794714D01*
X45402285Y39651857D01*
X45188000Y39580428D01*
X44830857Y39580428D01*
X50357285Y50117476D02*
X50643000Y50022238D01*
X51119190Y50022238D01*
X51309666Y50117476D01*
X51404904Y50212714D01*
X51500142Y50403190D01*
X51500142Y50593666D01*
X51404904Y50784142D01*
X51309666Y50879380D01*
X51119190Y50974619D01*
X50738238Y51069857D01*
X50547761Y51165095D01*
X50452523Y51260333D01*
X50357285Y51450809D01*
X50357285Y51641285D01*
X50452523Y51831761D01*
X50547761Y51927000D01*
X50738238Y52022238D01*
X51214428Y52022238D01*
X51500142Y51927000D01*
X52357285Y51069857D02*
X53023952Y51069857D01*
X53309666Y50022238D02*
X52357285Y50022238D01*
X52357285Y52022238D01*
X53309666Y52022238D01*
X55309666Y50022238D02*
X54643000Y50974619D01*
X54166809Y50022238D02*
X54166809Y52022238D01*
X54928714Y52022238D01*
X55119190Y51927000D01*
X55214428Y51831761D01*
X55309666Y51641285D01*
X55309666Y51355571D01*
X55214428Y51165095D01*
X55119190Y51069857D01*
X54928714Y50974619D01*
X54166809Y50974619D01*
X56166809Y50022238D02*
X56166809Y52022238D01*
X57023952Y50593666D02*
X57976333Y50593666D01*
X56833476Y50022238D02*
X57500142Y52022238D01*
X58166809Y50022238D01*
X59785857Y50022238D02*
X58833476Y50022238D01*
X58833476Y52022238D01*
X62643000Y51069857D02*
X62928714Y50974619D01*
X63023952Y50879380D01*
X63119190Y50688904D01*
X63119190Y50403190D01*
X63023952Y50212714D01*
X62928714Y50117476D01*
X62738238Y50022238D01*
X61976333Y50022238D01*
X61976333Y52022238D01*
X62643000Y52022238D01*
X62833476Y51927000D01*
X62928714Y51831761D01*
X63023952Y51641285D01*
X63023952Y51450809D01*
X62928714Y51260333D01*
X62833476Y51165095D01*
X62643000Y51069857D01*
X61976333Y51069857D01*
X64357285Y52022238D02*
X64738238Y52022238D01*
X64928714Y51927000D01*
X65119190Y51736523D01*
X65214428Y51355571D01*
X65214428Y50688904D01*
X65119190Y50307952D01*
X64928714Y50117476D01*
X64738238Y50022238D01*
X64357285Y50022238D01*
X64166809Y50117476D01*
X63976333Y50307952D01*
X63881095Y50688904D01*
X63881095Y51355571D01*
X63976333Y51736523D01*
X64166809Y51927000D01*
X64357285Y52022238D01*
X65976333Y50593666D02*
X66928714Y50593666D01*
X65785857Y50022238D02*
X66452523Y52022238D01*
X67119190Y50022238D01*
X68928714Y50022238D02*
X68262047Y50974619D01*
X67785857Y50022238D02*
X67785857Y52022238D01*
X68547761Y52022238D01*
X68738238Y51927000D01*
X68833476Y51831761D01*
X68928714Y51641285D01*
X68928714Y51355571D01*
X68833476Y51165095D01*
X68738238Y51069857D01*
X68547761Y50974619D01*
X67785857Y50974619D01*
X69785857Y50022238D02*
X69785857Y52022238D01*
X70262047Y52022238D01*
X70547761Y51927000D01*
X70738238Y51736523D01*
X70833476Y51546047D01*
X70928714Y51165095D01*
X70928714Y50879380D01*
X70833476Y50498428D01*
X70738238Y50307952D01*
X70547761Y50117476D01*
X70262047Y50022238D01*
X69785857Y50022238D01*
X73023952Y52022238D02*
X73690619Y50022238D01*
X74357285Y52022238D01*
X76071571Y50022238D02*
X74928714Y50022238D01*
X75500142Y50022238D02*
X75500142Y52022238D01*
X75309666Y51736523D01*
X75119190Y51546047D01*
X74928714Y51450809D01*
X76928714Y50212714D02*
X77023952Y50117476D01*
X76928714Y50022238D01*
X76833476Y50117476D01*
X76928714Y50212714D01*
X76928714Y50022238D01*
X78928714Y50022238D02*
X77785857Y50022238D01*
X78357285Y50022238D02*
X78357285Y52022238D01*
X78166809Y51736523D01*
X77976333Y51546047D01*
X77785857Y51450809D01*
D12*
%TO.C,G\u002A\u002A\u002A*%
G36*
X56435625Y55315341D02*
G01*
X55989787Y54859483D01*
X55892228Y54760090D01*
X55801328Y54668169D01*
X55719520Y54586130D01*
X55649239Y54516385D01*
X55592919Y54461343D01*
X55552994Y54423414D01*
X55531899Y54405009D01*
X55529412Y54403625D01*
X55527388Y54419291D01*
X55525483Y54465449D01*
X55523706Y54540842D01*
X55522066Y54644213D01*
X55520571Y54774304D01*
X55519230Y54929859D01*
X55518052Y55109620D01*
X55517046Y55312329D01*
X55516220Y55536730D01*
X55515583Y55781565D01*
X55515144Y56045576D01*
X55514911Y56327507D01*
X55514875Y56499125D01*
X55514875Y58594625D01*
X56435625Y58594625D01*
X56435625Y55315341D01*
G37*
X56435625Y55315341D02*
X55989787Y54859483D01*
X55892228Y54760090D01*
X55801328Y54668169D01*
X55719520Y54586130D01*
X55649239Y54516385D01*
X55592919Y54461343D01*
X55552994Y54423414D01*
X55531899Y54405009D01*
X55529412Y54403625D01*
X55527388Y54419291D01*
X55525483Y54465449D01*
X55523706Y54540842D01*
X55522066Y54644213D01*
X55520571Y54774304D01*
X55519230Y54929859D01*
X55518052Y55109620D01*
X55517046Y55312329D01*
X55516220Y55536730D01*
X55515583Y55781565D01*
X55515144Y56045576D01*
X55514911Y56327507D01*
X55514875Y56499125D01*
X55514875Y58594625D01*
X56435625Y58594625D01*
X56435625Y55315341D01*
G36*
X74930000Y57237313D02*
G01*
X73572757Y55880000D01*
X74930000Y54522688D01*
X76287242Y53165375D01*
X75644340Y53165388D01*
X75001437Y53165400D01*
X73644125Y54510794D01*
X73470999Y54682499D01*
X73304202Y54848122D01*
X73145117Y55006280D01*
X72995128Y55155587D01*
X72855620Y55294660D01*
X72727975Y55422115D01*
X72613579Y55536567D01*
X72513814Y55636632D01*
X72430066Y55720926D01*
X72363717Y55788064D01*
X72316152Y55836663D01*
X72288755Y55865338D01*
X72282280Y55872911D01*
X72292760Y55885998D01*
X72324457Y55920020D01*
X72376001Y55973597D01*
X72446023Y56045352D01*
X72533153Y56133903D01*
X72636022Y56237873D01*
X72753261Y56355882D01*
X72883499Y56486552D01*
X73025368Y56628502D01*
X73177497Y56780354D01*
X73338517Y56940730D01*
X73507059Y57108248D01*
X73641999Y57242130D01*
X75006250Y58594625D01*
X76287242Y58594625D01*
X74930000Y57237313D01*
G37*
X74930000Y57237313D02*
X73572757Y55880000D01*
X74930000Y54522688D01*
X76287242Y53165375D01*
X75644340Y53165388D01*
X75001437Y53165400D01*
X73644125Y54510794D01*
X73470999Y54682499D01*
X73304202Y54848122D01*
X73145117Y55006280D01*
X72995128Y55155587D01*
X72855620Y55294660D01*
X72727975Y55422115D01*
X72613579Y55536567D01*
X72513814Y55636632D01*
X72430066Y55720926D01*
X72363717Y55788064D01*
X72316152Y55836663D01*
X72288755Y55865338D01*
X72282280Y55872911D01*
X72292760Y55885998D01*
X72324457Y55920020D01*
X72376001Y55973597D01*
X72446023Y56045352D01*
X72533153Y56133903D01*
X72636022Y56237873D01*
X72753261Y56355882D01*
X72883499Y56486552D01*
X73025368Y56628502D01*
X73177497Y56780354D01*
X73338517Y56940730D01*
X73507059Y57108248D01*
X73641999Y57242130D01*
X75006250Y58594625D01*
X76287242Y58594625D01*
X74930000Y57237313D01*
G36*
X72011318Y58585742D02*
G01*
X72147525Y58578154D01*
X72264123Y58565496D01*
X72302687Y58559127D01*
X72584769Y58490718D01*
X72858499Y58393094D01*
X73120471Y58267935D01*
X73367280Y58116922D01*
X73595522Y57941736D01*
X73649219Y57894417D01*
X73757502Y57796315D01*
X73680969Y57717927D01*
X73646090Y57683020D01*
X73592991Y57630916D01*
X73526475Y57566280D01*
X73451347Y57493776D01*
X73372411Y57418068D01*
X73354604Y57401057D01*
X73104772Y57162576D01*
X73021229Y57238201D01*
X72849222Y57373146D01*
X72657673Y57485888D01*
X72451646Y57574285D01*
X72236208Y57636198D01*
X72016423Y57669485D01*
X71997093Y57670970D01*
X71742994Y57674935D01*
X71501785Y57650112D01*
X71273779Y57596610D01*
X71059290Y57514541D01*
X70858632Y57404016D01*
X70672119Y57265145D01*
X70564570Y57165706D01*
X70403717Y56983255D01*
X70268403Y56783882D01*
X70160311Y56570472D01*
X70081122Y56345909D01*
X70076450Y56328903D01*
X70061310Y56270104D01*
X70050314Y56218432D01*
X70042811Y56166887D01*
X70038147Y56108469D01*
X70035672Y56036177D01*
X70034733Y55943009D01*
X70034634Y55880000D01*
X70035005Y55772291D01*
X70036550Y55689325D01*
X70039924Y55624104D01*
X70045777Y55569626D01*
X70054762Y55518890D01*
X70067531Y55464895D01*
X70076450Y55431098D01*
X70122860Y55287609D01*
X70184887Y55137810D01*
X70256653Y54994641D01*
X70327552Y54877958D01*
X70428639Y54746543D01*
X70551603Y54614730D01*
X70688275Y54489946D01*
X70830487Y54379619D01*
X70970070Y54291177D01*
X70977125Y54287304D01*
X71115495Y54221701D01*
X71267960Y54166154D01*
X71424915Y54123290D01*
X71576756Y54095739D01*
X71712440Y54086125D01*
X71815705Y54086125D01*
X72341622Y53737849D01*
X72456969Y53661203D01*
X72563737Y53589757D01*
X72659082Y53525450D01*
X72740160Y53470224D01*
X72804128Y53426018D01*
X72848142Y53394775D01*
X72869359Y53378433D01*
X72870863Y53376693D01*
X72858250Y53365887D01*
X72820405Y53348895D01*
X72762841Y53327455D01*
X72691071Y53303305D01*
X72610608Y53278182D01*
X72526966Y53253824D01*
X72445658Y53231968D01*
X72372196Y53214351D01*
X72326500Y53205133D01*
X72246149Y53194128D01*
X72143527Y53185032D01*
X72026383Y53178062D01*
X71902468Y53173430D01*
X71779534Y53171353D01*
X71665331Y53172046D01*
X71567611Y53175723D01*
X71497334Y53182143D01*
X71290319Y53217822D01*
X71096226Y53267012D01*
X70904984Y53332877D01*
X70706523Y53418580D01*
X70635812Y53452701D01*
X70375078Y53598419D01*
X70136227Y53767051D01*
X69919644Y53958213D01*
X69725714Y54171525D01*
X69554821Y54406604D01*
X69407349Y54663070D01*
X69398101Y54681438D01*
X69278457Y54952986D01*
X69190353Y55225367D01*
X69133581Y55499528D01*
X69107931Y55776419D01*
X69109211Y55991125D01*
X69138320Y56287436D01*
X69196709Y56571483D01*
X69284394Y56843301D01*
X69401389Y57102923D01*
X69547709Y57350380D01*
X69723368Y57585707D01*
X69901895Y57782448D01*
X70118702Y57979418D01*
X70354729Y58151792D01*
X70607716Y58298355D01*
X70875404Y58417893D01*
X71155533Y58509191D01*
X71330627Y58550311D01*
X71438673Y58566925D01*
X71569179Y58578852D01*
X71713732Y58586015D01*
X71863916Y58588337D01*
X72011318Y58585742D01*
G37*
X72011318Y58585742D02*
X72147525Y58578154D01*
X72264123Y58565496D01*
X72302687Y58559127D01*
X72584769Y58490718D01*
X72858499Y58393094D01*
X73120471Y58267935D01*
X73367280Y58116922D01*
X73595522Y57941736D01*
X73649219Y57894417D01*
X73757502Y57796315D01*
X73680969Y57717927D01*
X73646090Y57683020D01*
X73592991Y57630916D01*
X73526475Y57566280D01*
X73451347Y57493776D01*
X73372411Y57418068D01*
X73354604Y57401057D01*
X73104772Y57162576D01*
X73021229Y57238201D01*
X72849222Y57373146D01*
X72657673Y57485888D01*
X72451646Y57574285D01*
X72236208Y57636198D01*
X72016423Y57669485D01*
X71997093Y57670970D01*
X71742994Y57674935D01*
X71501785Y57650112D01*
X71273779Y57596610D01*
X71059290Y57514541D01*
X70858632Y57404016D01*
X70672119Y57265145D01*
X70564570Y57165706D01*
X70403717Y56983255D01*
X70268403Y56783882D01*
X70160311Y56570472D01*
X70081122Y56345909D01*
X70076450Y56328903D01*
X70061310Y56270104D01*
X70050314Y56218432D01*
X70042811Y56166887D01*
X70038147Y56108469D01*
X70035672Y56036177D01*
X70034733Y55943009D01*
X70034634Y55880000D01*
X70035005Y55772291D01*
X70036550Y55689325D01*
X70039924Y55624104D01*
X70045777Y55569626D01*
X70054762Y55518890D01*
X70067531Y55464895D01*
X70076450Y55431098D01*
X70122860Y55287609D01*
X70184887Y55137810D01*
X70256653Y54994641D01*
X70327552Y54877958D01*
X70428639Y54746543D01*
X70551603Y54614730D01*
X70688275Y54489946D01*
X70830487Y54379619D01*
X70970070Y54291177D01*
X70977125Y54287304D01*
X71115495Y54221701D01*
X71267960Y54166154D01*
X71424915Y54123290D01*
X71576756Y54095739D01*
X71712440Y54086125D01*
X71815705Y54086125D01*
X72341622Y53737849D01*
X72456969Y53661203D01*
X72563737Y53589757D01*
X72659082Y53525450D01*
X72740160Y53470224D01*
X72804128Y53426018D01*
X72848142Y53394775D01*
X72869359Y53378433D01*
X72870863Y53376693D01*
X72858250Y53365887D01*
X72820405Y53348895D01*
X72762841Y53327455D01*
X72691071Y53303305D01*
X72610608Y53278182D01*
X72526966Y53253824D01*
X72445658Y53231968D01*
X72372196Y53214351D01*
X72326500Y53205133D01*
X72246149Y53194128D01*
X72143527Y53185032D01*
X72026383Y53178062D01*
X71902468Y53173430D01*
X71779534Y53171353D01*
X71665331Y53172046D01*
X71567611Y53175723D01*
X71497334Y53182143D01*
X71290319Y53217822D01*
X71096226Y53267012D01*
X70904984Y53332877D01*
X70706523Y53418580D01*
X70635812Y53452701D01*
X70375078Y53598419D01*
X70136227Y53767051D01*
X69919644Y53958213D01*
X69725714Y54171525D01*
X69554821Y54406604D01*
X69407349Y54663070D01*
X69398101Y54681438D01*
X69278457Y54952986D01*
X69190353Y55225367D01*
X69133581Y55499528D01*
X69107931Y55776419D01*
X69109211Y55991125D01*
X69138320Y56287436D01*
X69196709Y56571483D01*
X69284394Y56843301D01*
X69401389Y57102923D01*
X69547709Y57350380D01*
X69723368Y57585707D01*
X69901895Y57782448D01*
X70118702Y57979418D01*
X70354729Y58151792D01*
X70607716Y58298355D01*
X70875404Y58417893D01*
X71155533Y58509191D01*
X71330627Y58550311D01*
X71438673Y58566925D01*
X71569179Y58578852D01*
X71713732Y58586015D01*
X71863916Y58588337D01*
X72011318Y58585742D01*
G36*
X63567468Y58567469D02*
G01*
X63583205Y58553255D01*
X63621229Y58519008D01*
X63680213Y58465920D01*
X63758832Y58395183D01*
X63855760Y58307990D01*
X63969671Y58205534D01*
X64099239Y58089006D01*
X64243138Y57959599D01*
X64400044Y57818505D01*
X64568628Y57666917D01*
X64747567Y57506027D01*
X64935534Y57337027D01*
X65131203Y57161109D01*
X65333249Y56979467D01*
X65373250Y56943506D01*
X67143312Y55352235D01*
X67147356Y56973430D01*
X67151399Y58594625D01*
X68056125Y58594625D01*
X68056125Y55880000D01*
X68056102Y55589003D01*
X68056035Y55306688D01*
X68055926Y55034683D01*
X68055779Y54774611D01*
X68055594Y54528098D01*
X68055375Y54296768D01*
X68055123Y54082248D01*
X68054842Y53886162D01*
X68054533Y53710135D01*
X68054200Y53555792D01*
X68053843Y53424759D01*
X68053467Y53318660D01*
X68053072Y53239121D01*
X68052662Y53187766D01*
X68052239Y53166221D01*
X68052156Y53165632D01*
X68040112Y53176086D01*
X68005719Y53206637D01*
X67950238Y53256154D01*
X67874929Y53323506D01*
X67781053Y53407561D01*
X67669871Y53507190D01*
X67542644Y53621261D01*
X67400634Y53748642D01*
X67245100Y53888204D01*
X67077304Y54038816D01*
X66898506Y54199345D01*
X66709969Y54368663D01*
X66512951Y54545636D01*
X66308716Y54729135D01*
X66182875Y54842220D01*
X65967442Y55035817D01*
X65753938Y55227666D01*
X65543996Y55416297D01*
X65339253Y55600242D01*
X65141344Y55778031D01*
X64951906Y55948195D01*
X64772572Y56109266D01*
X64604979Y56259776D01*
X64450763Y56398253D01*
X64311559Y56523231D01*
X64189003Y56633240D01*
X64084730Y56726812D01*
X64000375Y56802476D01*
X63937575Y56858765D01*
X63925035Y56869995D01*
X63532509Y57221438D01*
X63532129Y57910799D01*
X63531750Y58600159D01*
X63567468Y58567469D01*
G37*
X63567468Y58567469D02*
X63583205Y58553255D01*
X63621229Y58519008D01*
X63680213Y58465920D01*
X63758832Y58395183D01*
X63855760Y58307990D01*
X63969671Y58205534D01*
X64099239Y58089006D01*
X64243138Y57959599D01*
X64400044Y57818505D01*
X64568628Y57666917D01*
X64747567Y57506027D01*
X64935534Y57337027D01*
X65131203Y57161109D01*
X65333249Y56979467D01*
X65373250Y56943506D01*
X67143312Y55352235D01*
X67147356Y56973430D01*
X67151399Y58594625D01*
X68056125Y58594625D01*
X68056125Y55880000D01*
X68056102Y55589003D01*
X68056035Y55306688D01*
X68055926Y55034683D01*
X68055779Y54774611D01*
X68055594Y54528098D01*
X68055375Y54296768D01*
X68055123Y54082248D01*
X68054842Y53886162D01*
X68054533Y53710135D01*
X68054200Y53555792D01*
X68053843Y53424759D01*
X68053467Y53318660D01*
X68053072Y53239121D01*
X68052662Y53187766D01*
X68052239Y53166221D01*
X68052156Y53165632D01*
X68040112Y53176086D01*
X68005719Y53206637D01*
X67950238Y53256154D01*
X67874929Y53323506D01*
X67781053Y53407561D01*
X67669871Y53507190D01*
X67542644Y53621261D01*
X67400634Y53748642D01*
X67245100Y53888204D01*
X67077304Y54038816D01*
X66898506Y54199345D01*
X66709969Y54368663D01*
X66512951Y54545636D01*
X66308716Y54729135D01*
X66182875Y54842220D01*
X65967442Y55035817D01*
X65753938Y55227666D01*
X65543996Y55416297D01*
X65339253Y55600242D01*
X65141344Y55778031D01*
X64951906Y55948195D01*
X64772572Y56109266D01*
X64604979Y56259776D01*
X64450763Y56398253D01*
X64311559Y56523231D01*
X64189003Y56633240D01*
X64084730Y56726812D01*
X64000375Y56802476D01*
X63937575Y56858765D01*
X63925035Y56869995D01*
X63532509Y57221438D01*
X63532129Y57910799D01*
X63531750Y58600159D01*
X63567468Y58567469D01*
G36*
X65258321Y53628220D02*
G01*
X65313940Y53519140D01*
X65364592Y53419185D01*
X65408536Y53331839D01*
X65444031Y53260588D01*
X65469334Y53208917D01*
X65482706Y53180310D01*
X65484375Y53175783D01*
X65469128Y53173246D01*
X65425904Y53170933D01*
X65358472Y53168921D01*
X65270605Y53167288D01*
X65166074Y53166112D01*
X65048649Y53165472D01*
X64980214Y53165375D01*
X64476053Y53165375D01*
X64250000Y53617813D01*
X64023947Y54070250D01*
X65032267Y54070250D01*
X65258321Y53628220D01*
G37*
X65258321Y53628220D02*
X65313940Y53519140D01*
X65364592Y53419185D01*
X65408536Y53331839D01*
X65444031Y53260588D01*
X65469334Y53208917D01*
X65482706Y53180310D01*
X65484375Y53175783D01*
X65469128Y53173246D01*
X65425904Y53170933D01*
X65358472Y53168921D01*
X65270605Y53167288D01*
X65166074Y53166112D01*
X65048649Y53165472D01*
X64980214Y53165375D01*
X64476053Y53165375D01*
X64250000Y53617813D01*
X64023947Y54070250D01*
X65032267Y54070250D01*
X65258321Y53628220D01*
G36*
X63675731Y56800727D02*
G01*
X63787783Y56576823D01*
X63895840Y56360748D01*
X63999055Y56154205D01*
X64096581Y55958894D01*
X64187570Y55776517D01*
X64271177Y55608775D01*
X64346554Y55457369D01*
X64412855Y55324000D01*
X64469232Y55210369D01*
X64514838Y55118177D01*
X64548827Y55049126D01*
X64570353Y55004917D01*
X64578567Y54987251D01*
X64578624Y54987032D01*
X64563594Y54984141D01*
X64520562Y54981503D01*
X64453278Y54979207D01*
X64365489Y54977340D01*
X64260944Y54975990D01*
X64143391Y54975245D01*
X64071478Y54975125D01*
X63563457Y54975125D01*
X63170647Y55760938D01*
X63097281Y55907418D01*
X63028088Y56045012D01*
X62964372Y56171163D01*
X62907440Y56283312D01*
X62858596Y56378902D01*
X62819144Y56455376D01*
X62790391Y56510176D01*
X62773642Y56540744D01*
X62769824Y56546410D01*
X62761822Y56532460D01*
X62740491Y56491861D01*
X62706711Y56426354D01*
X62661365Y56337682D01*
X62605335Y56227588D01*
X62539503Y56097812D01*
X62464751Y55950098D01*
X62381960Y55786187D01*
X62292013Y55607822D01*
X62195792Y55416745D01*
X62094178Y55214698D01*
X61988053Y55003422D01*
X61913937Y54855722D01*
X61066063Y53165375D01*
X60055106Y53165375D01*
X61414410Y55883946D01*
X62773714Y58602516D01*
X63675731Y56800727D01*
G37*
X63675731Y56800727D02*
X63787783Y56576823D01*
X63895840Y56360748D01*
X63999055Y56154205D01*
X64096581Y55958894D01*
X64187570Y55776517D01*
X64271177Y55608775D01*
X64346554Y55457369D01*
X64412855Y55324000D01*
X64469232Y55210369D01*
X64514838Y55118177D01*
X64548827Y55049126D01*
X64570353Y55004917D01*
X64578567Y54987251D01*
X64578624Y54987032D01*
X64563594Y54984141D01*
X64520562Y54981503D01*
X64453278Y54979207D01*
X64365489Y54977340D01*
X64260944Y54975990D01*
X64143391Y54975245D01*
X64071478Y54975125D01*
X63563457Y54975125D01*
X63170647Y55760938D01*
X63097281Y55907418D01*
X63028088Y56045012D01*
X62964372Y56171163D01*
X62907440Y56283312D01*
X62858596Y56378902D01*
X62819144Y56455376D01*
X62790391Y56510176D01*
X62773642Y56540744D01*
X62769824Y56546410D01*
X62761822Y56532460D01*
X62740491Y56491861D01*
X62706711Y56426354D01*
X62661365Y56337682D01*
X62605335Y56227588D01*
X62539503Y56097812D01*
X62464751Y55950098D01*
X62381960Y55786187D01*
X62292013Y55607822D01*
X62195792Y55416745D01*
X62094178Y55214698D01*
X61988053Y55003422D01*
X61913937Y54855722D01*
X61066063Y53165375D01*
X60055106Y53165375D01*
X61414410Y55883946D01*
X62773714Y58602516D01*
X63675731Y56800727D01*
G36*
X59150250Y53165375D02*
G01*
X55528119Y53165375D01*
X55969966Y53617538D01*
X56411812Y54069700D01*
X59150250Y54070250D01*
X59150250Y53165375D01*
G37*
X59150250Y53165375D02*
X55528119Y53165375D01*
X55969966Y53617538D01*
X56411812Y54069700D01*
X59150250Y54070250D01*
X59150250Y53165375D01*
G36*
X51665291Y58594562D02*
G01*
X51925399Y58594525D01*
X52155908Y58594367D01*
X52358968Y58593981D01*
X52536730Y58593259D01*
X52691346Y58592093D01*
X52824965Y58590375D01*
X52939740Y58587999D01*
X53037820Y58584856D01*
X53121356Y58580840D01*
X53192500Y58575841D01*
X53253401Y58569753D01*
X53306211Y58562469D01*
X53353081Y58553880D01*
X53396162Y58543879D01*
X53437603Y58532358D01*
X53479557Y58519211D01*
X53524173Y58504328D01*
X53533716Y58501096D01*
X53741999Y58414185D01*
X53938309Y58300043D01*
X54119772Y58161668D01*
X54283511Y58002059D01*
X54426652Y57824214D01*
X54546320Y57631132D01*
X54639637Y57425811D01*
X54679354Y57306466D01*
X54730202Y57077642D01*
X54752357Y56844746D01*
X54746171Y56612007D01*
X54711995Y56383651D01*
X54650183Y56163907D01*
X54568095Y55970761D01*
X54452638Y55775222D01*
X54311567Y55593794D01*
X54148646Y55429771D01*
X53967636Y55286447D01*
X53772302Y55167116D01*
X53566406Y55075071D01*
X53530035Y55062173D01*
X53479847Y55045436D01*
X53432695Y55030990D01*
X53385890Y55018668D01*
X53336744Y55008300D01*
X53282569Y54999719D01*
X53220677Y54992757D01*
X53148378Y54987245D01*
X53062985Y54983014D01*
X52961810Y54979897D01*
X52842163Y54977725D01*
X52701357Y54976331D01*
X52536703Y54975545D01*
X52345513Y54975199D01*
X52139358Y54975125D01*
X51133375Y54975125D01*
X51133375Y53165375D01*
X50228500Y53165375D01*
X50228500Y55879038D01*
X53109812Y55887938D01*
X53214145Y55923422D01*
X53362280Y55989991D01*
X53499578Y56083673D01*
X53620810Y56200332D01*
X53706388Y56313026D01*
X53780764Y56455771D01*
X53826522Y56608644D01*
X53843458Y56767604D01*
X53831368Y56928607D01*
X53790045Y57087611D01*
X53750466Y57181750D01*
X53700925Y57262971D01*
X53631011Y57350190D01*
X53548575Y57435541D01*
X53461469Y57511158D01*
X53377545Y57569171D01*
X53347937Y57585054D01*
X53309489Y57603672D01*
X53275006Y57619661D01*
X53241830Y57633238D01*
X53207303Y57644618D01*
X53168768Y57654016D01*
X53123567Y57661648D01*
X53069043Y57667730D01*
X53002538Y57672478D01*
X52921394Y57676106D01*
X52822953Y57678831D01*
X52704559Y57680869D01*
X52563552Y57682434D01*
X52397277Y57683742D01*
X52203074Y57685010D01*
X52108521Y57685608D01*
X51123105Y57691874D01*
X50671938Y58143250D01*
X50220772Y58594625D01*
X51665291Y58594562D01*
G37*
X51665291Y58594562D02*
X51925399Y58594525D01*
X52155908Y58594367D01*
X52358968Y58593981D01*
X52536730Y58593259D01*
X52691346Y58592093D01*
X52824965Y58590375D01*
X52939740Y58587999D01*
X53037820Y58584856D01*
X53121356Y58580840D01*
X53192500Y58575841D01*
X53253401Y58569753D01*
X53306211Y58562469D01*
X53353081Y58553880D01*
X53396162Y58543879D01*
X53437603Y58532358D01*
X53479557Y58519211D01*
X53524173Y58504328D01*
X53533716Y58501096D01*
X53741999Y58414185D01*
X53938309Y58300043D01*
X54119772Y58161668D01*
X54283511Y58002059D01*
X54426652Y57824214D01*
X54546320Y57631132D01*
X54639637Y57425811D01*
X54679354Y57306466D01*
X54730202Y57077642D01*
X54752357Y56844746D01*
X54746171Y56612007D01*
X54711995Y56383651D01*
X54650183Y56163907D01*
X54568095Y55970761D01*
X54452638Y55775222D01*
X54311567Y55593794D01*
X54148646Y55429771D01*
X53967636Y55286447D01*
X53772302Y55167116D01*
X53566406Y55075071D01*
X53530035Y55062173D01*
X53479847Y55045436D01*
X53432695Y55030990D01*
X53385890Y55018668D01*
X53336744Y55008300D01*
X53282569Y54999719D01*
X53220677Y54992757D01*
X53148378Y54987245D01*
X53062985Y54983014D01*
X52961810Y54979897D01*
X52842163Y54977725D01*
X52701357Y54976331D01*
X52536703Y54975545D01*
X52345513Y54975199D01*
X52139358Y54975125D01*
X51133375Y54975125D01*
X51133375Y53165375D01*
X50228500Y53165375D01*
X50228500Y55879038D01*
X53109812Y55887938D01*
X53214145Y55923422D01*
X53362280Y55989991D01*
X53499578Y56083673D01*
X53620810Y56200332D01*
X53706388Y56313026D01*
X53780764Y56455771D01*
X53826522Y56608644D01*
X53843458Y56767604D01*
X53831368Y56928607D01*
X53790045Y57087611D01*
X53750466Y57181750D01*
X53700925Y57262971D01*
X53631011Y57350190D01*
X53548575Y57435541D01*
X53461469Y57511158D01*
X53377545Y57569171D01*
X53347937Y57585054D01*
X53309489Y57603672D01*
X53275006Y57619661D01*
X53241830Y57633238D01*
X53207303Y57644618D01*
X53168768Y57654016D01*
X53123567Y57661648D01*
X53069043Y57667730D01*
X53002538Y57672478D01*
X52921394Y57676106D01*
X52822953Y57678831D01*
X52704559Y57680869D01*
X52563552Y57682434D01*
X52397277Y57683742D01*
X52203074Y57685010D01*
X52108521Y57685608D01*
X51123105Y57691874D01*
X50671938Y58143250D01*
X50220772Y58594625D01*
X51665291Y58594562D01*
D13*
%TO.C,D2*%
X20320000Y48832000D02*
X20320000Y48832000D01*
X20320000Y51502000D02*
X20320000Y48832000D01*
X20320000Y51502000D02*
X20320000Y51502000D01*
X20320000Y48832000D02*
X20320000Y51502000D01*
X22860000Y48832000D02*
X22860000Y48832000D01*
X22860000Y51502000D02*
X22860000Y48832000D01*
X22860000Y51502000D02*
X22860000Y51502000D01*
X22860000Y48832000D02*
X22860000Y51502000D01*
X20030000Y51502000D02*
X19630000Y51502000D01*
X20030000Y52622000D02*
X20030000Y51502000D01*
X19630000Y52622000D02*
X20030000Y52622000D01*
X19630000Y51502000D02*
X19630000Y52622000D01*
X23150000Y51502000D02*
X20030000Y51502000D01*
X20030000Y51502000D02*
X20030000Y55362000D01*
X23150000Y51502000D02*
X23150000Y55362000D01*
X20030000Y55362000D02*
G75*
G02*
X23150000Y55362000I1560000J0D01*
G01*
%TO.C,D1*%
X12446000Y48832000D02*
X12446000Y48832000D01*
X12446000Y51502000D02*
X12446000Y48832000D01*
X12446000Y51502000D02*
X12446000Y51502000D01*
X12446000Y48832000D02*
X12446000Y51502000D01*
X14986000Y48832000D02*
X14986000Y48832000D01*
X14986000Y51502000D02*
X14986000Y48832000D01*
X14986000Y51502000D02*
X14986000Y51502000D01*
X14986000Y48832000D02*
X14986000Y51502000D01*
X12156000Y51502000D02*
X11756000Y51502000D01*
X12156000Y52622000D02*
X12156000Y51502000D01*
X11756000Y52622000D02*
X12156000Y52622000D01*
X11756000Y51502000D02*
X11756000Y52622000D01*
X15276000Y51502000D02*
X12156000Y51502000D01*
X12156000Y51502000D02*
X12156000Y55362000D01*
X15276000Y51502000D02*
X15276000Y55362000D01*
X12156000Y55362000D02*
G75*
G02*
X15276000Y55362000I1560000J0D01*
G01*
%TO.C,R4*%
X74818000Y35402000D02*
X70978000Y35402000D01*
X74818000Y37242000D02*
X70978000Y37242000D01*
%TO.C,R3*%
X51928000Y12604000D02*
X55768000Y12604000D01*
X51928000Y10764000D02*
X55768000Y10764000D01*
%TO.C,R2*%
X23256000Y37688000D02*
X19416000Y37688000D01*
X23256000Y39528000D02*
X19416000Y39528000D01*
%TO.C,R1*%
X15382000Y37688000D02*
X11542000Y37688000D01*
X15382000Y39528000D02*
X11542000Y39528000D01*
%TO.C,C2*%
X75208000Y31442000D02*
X70668000Y31442000D01*
X75208000Y33582000D02*
X70668000Y33582000D01*
X75208000Y31442000D02*
X75208000Y31457000D01*
X75208000Y33567000D02*
X75208000Y33582000D01*
X70668000Y31442000D02*
X70668000Y31457000D01*
X70668000Y33567000D02*
X70668000Y33582000D01*
%TO.C,C1*%
X15548000Y24662000D02*
X15548000Y20122000D01*
X13408000Y24662000D02*
X13408000Y20122000D01*
X15548000Y24662000D02*
X15533000Y24662000D01*
X13423000Y24662000D02*
X13408000Y24662000D01*
X15548000Y20122000D02*
X15533000Y20122000D01*
X13423000Y20122000D02*
X13408000Y20122000D01*
%TO.C,X1*%
X16283000Y14505000D02*
X28433000Y14505000D01*
X29183000Y15255000D02*
X29183000Y26655000D01*
X28433000Y27405000D02*
X17033000Y27405000D01*
X16283000Y26655000D02*
X16283000Y14505000D01*
X17033000Y27405000D02*
G75*
G03*
X16283000Y26655000I0J-750000D01*
G01*
X29183000Y26655000D02*
G75*
G03*
X28433000Y27405000I-750000J0D01*
G01*
X28433000Y14505000D02*
G75*
G03*
X29183000Y15255000I0J750000D01*
G01*
%TO.C,U1*%
X41155000Y30921000D02*
X41155000Y13021000D01*
X76955000Y30921000D02*
X41155000Y30921000D01*
X76955000Y13021000D02*
X76955000Y30921000D01*
X41155000Y13021000D02*
X76955000Y13021000D01*
X41215000Y28431000D02*
X41215000Y22971000D01*
X76895000Y28431000D02*
X41215000Y28431000D01*
X76895000Y15511000D02*
X76895000Y28431000D01*
X41215000Y15511000D02*
X76895000Y15511000D01*
X41215000Y20971000D02*
X41215000Y15511000D01*
X41215000Y22971000D02*
G75*
G02*
X41215000Y20971000I0J-1000000D01*
G01*
%TO.C,J2*%
X39370000Y54543000D02*
X40700000Y54543000D01*
X40700000Y54543000D02*
X40700000Y53213000D01*
X40700000Y51943000D02*
X40700000Y39183000D01*
X38040000Y39183000D02*
X40700000Y39183000D01*
X38040000Y51943000D02*
X38040000Y39183000D01*
X38040000Y51943000D02*
X40700000Y51943000D01*
%TO.C,J1*%
X79502000Y7874000D02*
X79502000Y6604000D01*
X78232000Y7874000D02*
X79502000Y7874000D01*
X16892000Y5561071D02*
X16892000Y5106929D01*
X17652000Y5561071D02*
X17652000Y5106929D01*
X16892000Y3021071D02*
X16892000Y2624000D01*
X17652000Y3021071D02*
X17652000Y2624000D01*
X16892000Y-6036000D02*
X16892000Y-36000D01*
X17652000Y-6036000D02*
X16892000Y-6036000D01*
X17652000Y-36000D02*
X17652000Y-6036000D01*
X18542000Y2624000D02*
X18542000Y-36000D01*
X19432000Y5561071D02*
X19432000Y5106929D01*
X20192000Y5561071D02*
X20192000Y5106929D01*
X19432000Y3021071D02*
X19432000Y2624000D01*
X20192000Y3021071D02*
X20192000Y2624000D01*
X19432000Y-6036000D02*
X19432000Y-36000D01*
X20192000Y-6036000D02*
X19432000Y-6036000D01*
X20192000Y-36000D02*
X20192000Y-6036000D01*
X21082000Y2624000D02*
X21082000Y-36000D01*
X21972000Y5561071D02*
X21972000Y5106929D01*
X22732000Y5561071D02*
X22732000Y5106929D01*
X21972000Y3021071D02*
X21972000Y2624000D01*
X22732000Y3021071D02*
X22732000Y2624000D01*
X21972000Y-6036000D02*
X21972000Y-36000D01*
X22732000Y-6036000D02*
X21972000Y-6036000D01*
X22732000Y-36000D02*
X22732000Y-6036000D01*
X23622000Y2624000D02*
X23622000Y-36000D01*
X24512000Y5561071D02*
X24512000Y5106929D01*
X25272000Y5561071D02*
X25272000Y5106929D01*
X24512000Y3021071D02*
X24512000Y2624000D01*
X25272000Y3021071D02*
X25272000Y2624000D01*
X24512000Y-6036000D02*
X24512000Y-36000D01*
X25272000Y-6036000D02*
X24512000Y-6036000D01*
X25272000Y-36000D02*
X25272000Y-6036000D01*
X26162000Y2624000D02*
X26162000Y-36000D01*
X27052000Y5561071D02*
X27052000Y5106929D01*
X27812000Y5561071D02*
X27812000Y5106929D01*
X27052000Y3021071D02*
X27052000Y2624000D01*
X27812000Y3021071D02*
X27812000Y2624000D01*
X27052000Y-6036000D02*
X27052000Y-36000D01*
X27812000Y-6036000D02*
X27052000Y-6036000D01*
X27812000Y-36000D02*
X27812000Y-6036000D01*
X28702000Y2624000D02*
X28702000Y-36000D01*
X29592000Y5561071D02*
X29592000Y5106929D01*
X30352000Y5561071D02*
X30352000Y5106929D01*
X29592000Y3021071D02*
X29592000Y2624000D01*
X30352000Y3021071D02*
X30352000Y2624000D01*
X29592000Y-6036000D02*
X29592000Y-36000D01*
X30352000Y-6036000D02*
X29592000Y-6036000D01*
X30352000Y-36000D02*
X30352000Y-6036000D01*
X31242000Y2624000D02*
X31242000Y-36000D01*
X32132000Y5561071D02*
X32132000Y5106929D01*
X32892000Y5561071D02*
X32892000Y5106929D01*
X32132000Y3021071D02*
X32132000Y2624000D01*
X32892000Y3021071D02*
X32892000Y2624000D01*
X32132000Y-6036000D02*
X32132000Y-36000D01*
X32892000Y-6036000D02*
X32132000Y-6036000D01*
X32892000Y-36000D02*
X32892000Y-6036000D01*
X33782000Y2624000D02*
X33782000Y-36000D01*
X34672000Y5561071D02*
X34672000Y5106929D01*
X35432000Y5561071D02*
X35432000Y5106929D01*
X34672000Y3021071D02*
X34672000Y2624000D01*
X35432000Y3021071D02*
X35432000Y2624000D01*
X34672000Y-6036000D02*
X34672000Y-36000D01*
X35432000Y-6036000D02*
X34672000Y-6036000D01*
X35432000Y-36000D02*
X35432000Y-6036000D01*
X36322000Y2624000D02*
X36322000Y-36000D01*
X37212000Y5561071D02*
X37212000Y5106929D01*
X37972000Y5561071D02*
X37972000Y5106929D01*
X37212000Y3021071D02*
X37212000Y2624000D01*
X37972000Y3021071D02*
X37972000Y2624000D01*
X37212000Y-6036000D02*
X37212000Y-36000D01*
X37972000Y-6036000D02*
X37212000Y-6036000D01*
X37972000Y-36000D02*
X37972000Y-6036000D01*
X38862000Y2624000D02*
X38862000Y-36000D01*
X39752000Y5561071D02*
X39752000Y5106929D01*
X40512000Y5561071D02*
X40512000Y5106929D01*
X39752000Y3021071D02*
X39752000Y2624000D01*
X40512000Y3021071D02*
X40512000Y2624000D01*
X39752000Y-6036000D02*
X39752000Y-36000D01*
X40512000Y-6036000D02*
X39752000Y-6036000D01*
X40512000Y-36000D02*
X40512000Y-6036000D01*
X41402000Y2624000D02*
X41402000Y-36000D01*
X42292000Y5561071D02*
X42292000Y5106929D01*
X43052000Y5561071D02*
X43052000Y5106929D01*
X42292000Y3021071D02*
X42292000Y2624000D01*
X43052000Y3021071D02*
X43052000Y2624000D01*
X42292000Y-6036000D02*
X42292000Y-36000D01*
X43052000Y-6036000D02*
X42292000Y-6036000D01*
X43052000Y-36000D02*
X43052000Y-6036000D01*
X43942000Y2624000D02*
X43942000Y-36000D01*
X44832000Y5561071D02*
X44832000Y5106929D01*
X45592000Y5561071D02*
X45592000Y5106929D01*
X44832000Y3021071D02*
X44832000Y2624000D01*
X45592000Y3021071D02*
X45592000Y2624000D01*
X44832000Y-6036000D02*
X44832000Y-36000D01*
X45592000Y-6036000D02*
X44832000Y-6036000D01*
X45592000Y-36000D02*
X45592000Y-6036000D01*
X46482000Y2624000D02*
X46482000Y-36000D01*
X47372000Y5561071D02*
X47372000Y5106929D01*
X48132000Y5561071D02*
X48132000Y5106929D01*
X47372000Y3021071D02*
X47372000Y2624000D01*
X48132000Y3021071D02*
X48132000Y2624000D01*
X47372000Y-6036000D02*
X47372000Y-36000D01*
X48132000Y-6036000D02*
X47372000Y-6036000D01*
X48132000Y-36000D02*
X48132000Y-6036000D01*
X49022000Y2624000D02*
X49022000Y-36000D01*
X49912000Y5561071D02*
X49912000Y5106929D01*
X50672000Y5561071D02*
X50672000Y5106929D01*
X49912000Y3021071D02*
X49912000Y2624000D01*
X50672000Y3021071D02*
X50672000Y2624000D01*
X49912000Y-6036000D02*
X49912000Y-36000D01*
X50672000Y-6036000D02*
X49912000Y-6036000D01*
X50672000Y-36000D02*
X50672000Y-6036000D01*
X51562000Y2624000D02*
X51562000Y-36000D01*
X52452000Y5561071D02*
X52452000Y5106929D01*
X53212000Y5561071D02*
X53212000Y5106929D01*
X52452000Y3021071D02*
X52452000Y2624000D01*
X53212000Y3021071D02*
X53212000Y2624000D01*
X52452000Y-6036000D02*
X52452000Y-36000D01*
X53212000Y-6036000D02*
X52452000Y-6036000D01*
X53212000Y-36000D02*
X53212000Y-6036000D01*
X54102000Y2624000D02*
X54102000Y-36000D01*
X54992000Y5561071D02*
X54992000Y5106929D01*
X55752000Y5561071D02*
X55752000Y5106929D01*
X54992000Y3021071D02*
X54992000Y2624000D01*
X55752000Y3021071D02*
X55752000Y2624000D01*
X54992000Y-6036000D02*
X54992000Y-36000D01*
X55752000Y-6036000D02*
X54992000Y-6036000D01*
X55752000Y-36000D02*
X55752000Y-6036000D01*
X56642000Y2624000D02*
X56642000Y-36000D01*
X57532000Y5561071D02*
X57532000Y5106929D01*
X58292000Y5561071D02*
X58292000Y5106929D01*
X57532000Y3021071D02*
X57532000Y2624000D01*
X58292000Y3021071D02*
X58292000Y2624000D01*
X57532000Y-6036000D02*
X57532000Y-36000D01*
X58292000Y-6036000D02*
X57532000Y-6036000D01*
X58292000Y-36000D02*
X58292000Y-6036000D01*
X59182000Y2624000D02*
X59182000Y-36000D01*
X60072000Y5561071D02*
X60072000Y5106929D01*
X60832000Y5561071D02*
X60832000Y5106929D01*
X60072000Y3021071D02*
X60072000Y2624000D01*
X60832000Y3021071D02*
X60832000Y2624000D01*
X60072000Y-6036000D02*
X60072000Y-36000D01*
X60832000Y-6036000D02*
X60072000Y-6036000D01*
X60832000Y-36000D02*
X60832000Y-6036000D01*
X61722000Y2624000D02*
X61722000Y-36000D01*
X62612000Y5561071D02*
X62612000Y5106929D01*
X63372000Y5561071D02*
X63372000Y5106929D01*
X62612000Y3021071D02*
X62612000Y2624000D01*
X63372000Y3021071D02*
X63372000Y2624000D01*
X62612000Y-6036000D02*
X62612000Y-36000D01*
X63372000Y-6036000D02*
X62612000Y-6036000D01*
X63372000Y-36000D02*
X63372000Y-6036000D01*
X64262000Y2624000D02*
X64262000Y-36000D01*
X65152000Y5561071D02*
X65152000Y5106929D01*
X65912000Y5561071D02*
X65912000Y5106929D01*
X65152000Y3021071D02*
X65152000Y2624000D01*
X65912000Y3021071D02*
X65912000Y2624000D01*
X65152000Y-6036000D02*
X65152000Y-36000D01*
X65912000Y-6036000D02*
X65152000Y-6036000D01*
X65912000Y-36000D02*
X65912000Y-6036000D01*
X66802000Y2624000D02*
X66802000Y-36000D01*
X67692000Y5561071D02*
X67692000Y5106929D01*
X68452000Y5561071D02*
X68452000Y5106929D01*
X67692000Y3021071D02*
X67692000Y2624000D01*
X68452000Y3021071D02*
X68452000Y2624000D01*
X67692000Y-6036000D02*
X67692000Y-36000D01*
X68452000Y-6036000D02*
X67692000Y-6036000D01*
X68452000Y-36000D02*
X68452000Y-6036000D01*
X69342000Y2624000D02*
X69342000Y-36000D01*
X70232000Y5561071D02*
X70232000Y5106929D01*
X70992000Y5561071D02*
X70992000Y5106929D01*
X70232000Y3021071D02*
X70232000Y2624000D01*
X70992000Y3021071D02*
X70992000Y2624000D01*
X70232000Y-6036000D02*
X70232000Y-36000D01*
X70992000Y-6036000D02*
X70232000Y-6036000D01*
X70992000Y-36000D02*
X70992000Y-6036000D01*
X71882000Y2624000D02*
X71882000Y-36000D01*
X72772000Y5561071D02*
X72772000Y5106929D01*
X73532000Y5561071D02*
X73532000Y5106929D01*
X72772000Y3021071D02*
X72772000Y2624000D01*
X73532000Y3021071D02*
X73532000Y2624000D01*
X72772000Y-6036000D02*
X72772000Y-36000D01*
X73532000Y-6036000D02*
X72772000Y-6036000D01*
X73532000Y-36000D02*
X73532000Y-6036000D01*
X74422000Y2624000D02*
X74422000Y-36000D01*
X75312000Y5561071D02*
X75312000Y5106929D01*
X76072000Y5561071D02*
X76072000Y5106929D01*
X75312000Y3021071D02*
X75312000Y2624000D01*
X76072000Y3021071D02*
X76072000Y2624000D01*
X75312000Y-6036000D02*
X75312000Y-36000D01*
X76072000Y-6036000D02*
X75312000Y-6036000D01*
X76072000Y-36000D02*
X76072000Y-6036000D01*
X76962000Y2624000D02*
X76962000Y-36000D01*
X77852000Y5494000D02*
X77852000Y5106929D01*
X78612000Y5494000D02*
X78612000Y5106929D01*
X77852000Y3021071D02*
X77852000Y2624000D01*
X78612000Y3021071D02*
X78612000Y2624000D01*
X77952000Y-36000D02*
X77952000Y-6036000D01*
X78072000Y-36000D02*
X78072000Y-6036000D01*
X78192000Y-36000D02*
X78192000Y-6036000D01*
X78312000Y-36000D02*
X78312000Y-6036000D01*
X78432000Y-36000D02*
X78432000Y-6036000D01*
X78552000Y-36000D02*
X78552000Y-6036000D01*
X77852000Y-6036000D02*
X77852000Y-36000D01*
X78612000Y-6036000D02*
X77852000Y-6036000D01*
X78612000Y-36000D02*
X78612000Y-6036000D01*
X79562000Y-36000D02*
X79562000Y2624000D01*
X15942000Y-36000D02*
X79562000Y-36000D01*
X15942000Y2624000D02*
X15942000Y-36000D01*
X79562000Y2624000D02*
X15942000Y2624000D01*
%TO.C,D2*%
D14*
X20851904Y45339619D02*
X20851904Y46339619D01*
X21090000Y46339619D01*
X21232857Y46292000D01*
X21328095Y46196761D01*
X21375714Y46101523D01*
X21423333Y45911047D01*
X21423333Y45768190D01*
X21375714Y45577714D01*
X21328095Y45482476D01*
X21232857Y45387238D01*
X21090000Y45339619D01*
X20851904Y45339619D01*
X21804285Y46244380D02*
X21851904Y46292000D01*
X21947142Y46339619D01*
X22185238Y46339619D01*
X22280476Y46292000D01*
X22328095Y46244380D01*
X22375714Y46149142D01*
X22375714Y46053904D01*
X22328095Y45911047D01*
X21756666Y45339619D01*
X22375714Y45339619D01*
%TO.C,D1*%
X12977904Y45339619D02*
X12977904Y46339619D01*
X13216000Y46339619D01*
X13358857Y46292000D01*
X13454095Y46196761D01*
X13501714Y46101523D01*
X13549333Y45911047D01*
X13549333Y45768190D01*
X13501714Y45577714D01*
X13454095Y45482476D01*
X13358857Y45387238D01*
X13216000Y45339619D01*
X12977904Y45339619D01*
X14501714Y45339619D02*
X13930285Y45339619D01*
X14216000Y45339619D02*
X14216000Y46339619D01*
X14120761Y46196761D01*
X14025523Y46101523D01*
X13930285Y46053904D01*
%TO.C,R4*%
X72731333Y33949619D02*
X72398000Y34425809D01*
X72159904Y33949619D02*
X72159904Y34949619D01*
X72540857Y34949619D01*
X72636095Y34902000D01*
X72683714Y34854380D01*
X72731333Y34759142D01*
X72731333Y34616285D01*
X72683714Y34521047D01*
X72636095Y34473428D01*
X72540857Y34425809D01*
X72159904Y34425809D01*
X73588476Y34616285D02*
X73588476Y33949619D01*
X73350380Y34997238D02*
X73112285Y34282952D01*
X73731333Y34282952D01*
%TO.C,R3*%
X53681333Y13151619D02*
X53348000Y13627809D01*
X53109904Y13151619D02*
X53109904Y14151619D01*
X53490857Y14151619D01*
X53586095Y14104000D01*
X53633714Y14056380D01*
X53681333Y13961142D01*
X53681333Y13818285D01*
X53633714Y13723047D01*
X53586095Y13675428D01*
X53490857Y13627809D01*
X53109904Y13627809D01*
X54014666Y14151619D02*
X54633714Y14151619D01*
X54300380Y13770666D01*
X54443238Y13770666D01*
X54538476Y13723047D01*
X54586095Y13675428D01*
X54633714Y13580190D01*
X54633714Y13342095D01*
X54586095Y13246857D01*
X54538476Y13199238D01*
X54443238Y13151619D01*
X54157523Y13151619D01*
X54062285Y13199238D01*
X54014666Y13246857D01*
%TO.C,R2*%
X21169333Y36235619D02*
X20836000Y36711809D01*
X20597904Y36235619D02*
X20597904Y37235619D01*
X20978857Y37235619D01*
X21074095Y37188000D01*
X21121714Y37140380D01*
X21169333Y37045142D01*
X21169333Y36902285D01*
X21121714Y36807047D01*
X21074095Y36759428D01*
X20978857Y36711809D01*
X20597904Y36711809D01*
X21550285Y37140380D02*
X21597904Y37188000D01*
X21693142Y37235619D01*
X21931238Y37235619D01*
X22026476Y37188000D01*
X22074095Y37140380D01*
X22121714Y37045142D01*
X22121714Y36949904D01*
X22074095Y36807047D01*
X21502666Y36235619D01*
X22121714Y36235619D01*
%TO.C,R1*%
X13295333Y36235619D02*
X12962000Y36711809D01*
X12723904Y36235619D02*
X12723904Y37235619D01*
X13104857Y37235619D01*
X13200095Y37188000D01*
X13247714Y37140380D01*
X13295333Y37045142D01*
X13295333Y36902285D01*
X13247714Y36807047D01*
X13200095Y36759428D01*
X13104857Y36711809D01*
X12723904Y36711809D01*
X14247714Y36235619D02*
X13676285Y36235619D01*
X13962000Y36235619D02*
X13962000Y37235619D01*
X13866761Y37092761D01*
X13771523Y36997523D01*
X13676285Y36949904D01*
%TO.C,C2*%
X72771333Y29954857D02*
X72723714Y29907238D01*
X72580857Y29859619D01*
X72485619Y29859619D01*
X72342761Y29907238D01*
X72247523Y30002476D01*
X72199904Y30097714D01*
X72152285Y30288190D01*
X72152285Y30431047D01*
X72199904Y30621523D01*
X72247523Y30716761D01*
X72342761Y30812000D01*
X72485619Y30859619D01*
X72580857Y30859619D01*
X72723714Y30812000D01*
X72771333Y30764380D01*
X73152285Y30764380D02*
X73199904Y30812000D01*
X73295142Y30859619D01*
X73533238Y30859619D01*
X73628476Y30812000D01*
X73676095Y30764380D01*
X73723714Y30669142D01*
X73723714Y30573904D01*
X73676095Y30431047D01*
X73104666Y29859619D01*
X73723714Y29859619D01*
%TO.C,C1*%
X17035142Y22225333D02*
X17082761Y22177714D01*
X17130380Y22034857D01*
X17130380Y21939619D01*
X17082761Y21796761D01*
X16987523Y21701523D01*
X16892285Y21653904D01*
X16701809Y21606285D01*
X16558952Y21606285D01*
X16368476Y21653904D01*
X16273238Y21701523D01*
X16178000Y21796761D01*
X16130380Y21939619D01*
X16130380Y22034857D01*
X16178000Y22177714D01*
X16225619Y22225333D01*
X17130380Y23177714D02*
X17130380Y22606285D01*
X17130380Y22892000D02*
X16130380Y22892000D01*
X16273238Y22796761D01*
X16368476Y22701523D01*
X16416095Y22606285D01*
%TO.C,X1*%
X21923476Y13755619D02*
X22590142Y12755619D01*
X22590142Y13755619D02*
X21923476Y12755619D01*
X23494904Y12755619D02*
X22923476Y12755619D01*
X23209190Y12755619D02*
X23209190Y13755619D01*
X23113952Y13612761D01*
X23018714Y13517523D01*
X22923476Y13469904D01*
%TO.C,U1*%
X39667380Y21209095D02*
X40476904Y21209095D01*
X40572142Y21256714D01*
X40619761Y21304333D01*
X40667380Y21399571D01*
X40667380Y21590047D01*
X40619761Y21685285D01*
X40572142Y21732904D01*
X40476904Y21780523D01*
X39667380Y21780523D01*
X40667380Y22780523D02*
X40667380Y22209095D01*
X40667380Y22494809D02*
X39667380Y22494809D01*
X39810238Y22399571D01*
X39905476Y22304333D01*
X39953095Y22209095D01*
%TO.C,J2*%
X39036666Y56530619D02*
X39036666Y55816333D01*
X38989047Y55673476D01*
X38893809Y55578238D01*
X38750952Y55530619D01*
X38655714Y55530619D01*
X39465238Y56435380D02*
X39512857Y56483000D01*
X39608095Y56530619D01*
X39846190Y56530619D01*
X39941428Y56483000D01*
X39989047Y56435380D01*
X40036666Y56340142D01*
X40036666Y56244904D01*
X39989047Y56102047D01*
X39417619Y55530619D01*
X40036666Y55530619D01*
%TO.C,J1*%
X79954380Y615666D02*
X80668666Y615666D01*
X80811523Y568047D01*
X80906761Y472809D01*
X80954380Y329952D01*
X80954380Y234714D01*
X80954380Y1615666D02*
X80954380Y1044238D01*
X80954380Y1329952D02*
X79954380Y1329952D01*
X80097238Y1234714D01*
X80192476Y1139476D01*
X80240095Y1044238D01*
%TD*%
M02*
